%YAML 1.1
%TAG !u! tag:unity3d.com,2011:
--- !u!162 &1
EditorUserSettings:
  m_ObjectHideFlags: 0
  serializedVersion: 4
  m_ConfigSettings:
    RecentlyUsedSceneGuid-0:
      value: 56010d005d5308035d0d5b7248210c4445164e7a7f2972677a781960b7e36c6d
      flags: 0
    RecentlyUsedSceneGuid-1:
      value: 0702030301020c025f5c5e7214720f4443164b7c2e2b71632e7e1e67e1e6656e
      flags: 0
    RecentlyUsedSceneGuid-2:
      value: 0150520255510f095459597746275b44424f4b787d7175327f7b1b30e3b1353d
      flags: 0
    RecentlyUsedSceneGuid-3:
      value: 02555555550d5f59090b5c2312720744434e4d72752d74622971196ae7b16c6a
      flags: 0
    RecentlyUsedSceneGuid-4:
      value: 57575155500d0b095c08097347740944121540732d712732742f4f63b0b3666f
      flags: 0
    RecentlyUsedSceneGuid-5:
      value: 02555151010651035f0c587649760e444316402c297f7f36787f4f67e0e5353a
      flags: 0
    RecentlyUsedSceneGuid-6:
      value: 525306025653500b0e5e0a77402106441515417b7c2b70662e7e4a60e6b0643c
      flags: 0
    RecentlyUsedSceneGuid-7:
      value: 5300570753065803540c5a7b15730f444e4f4c727b2c70667d7b4f67e3b3656d
      flags: 0
    RecentlyUsedSceneGuid-8:
      value: 5b09570301565b025a0f0a2340770d4043161e2b7d2a75672b7d4b35b2e6373e
      flags: 0
    RecentlyUsedSceneGuid-9:
      value: 5a5757560101590a5d0c0e24427b5d44434e4c7a7b7a23677f2b4565b7b5353a
      flags: 0
    vcSharedLogLevel:
      value: 0d5e400f0650
      flags: 0
  m_VCAutomaticAdd: 1
  m_VCDebugCom: 0
  m_VCDebugCmd: 0
  m_VCDebugOut: 0
  m_SemanticMergeMode: 2
  m_DesiredImportWorkerCount: 2
  m_StandbyImportWorkerCount: 2
  m_IdleImportWorkerShutdownDelay: 60000
  m_VCShowFailedCheckout: 1
  m_VCOverwriteFailedCheckoutAssets: 1
  m_VCProjectOverlayIcons: 1
  m_VCHierarchyOverlayIcons: 1
  m_VCOtherOverlayIcons: 1
  m_VCAllowAsyncUpdate: 1
  m_ArtifactGarbageCollection: 1
